
See5 [Release 2.11a]  	Sun May 17 11:40:15 2020
--------------------

    Options:
	Rule-based classifiers

Class specified by attribute `Glandular Tissue'

Read 283 cases (44 attributes) from diagnosis_p.data
Read misclassification costs from diagnosis_p.costs

Rules:

Rule 1: (8, lift 12.7)
	43 <= 35
	48 > 0
	mu1 > 81
	->  class Explicit  [0.900]

Rule 2: (6, lift 12.4)
	2 <= 1
	48 > 0
	64 <= 10
	weight <= 6
	->  class Explicit  [0.875]

Rule 3: (7, lift 3.0)
	18 <= 1
	48 > 0
	60 <= 2
	64 > 10
	tr <= 54
	mu1 <= 112
	weight <= 5
	->  class Fibrotic bands  [0.889]

Rule 4: (12/1, lift 2.9)
	2 <= 2
	43 > 67
	48 > 0
	ent <= 2816
	mu1 > 112
	weight <= 6
	->  class Fibrotic bands  [0.857]

Rule 5: (5, lift 2.9)
	18 > 2
	mu1 > 81
	weight > 6
	->  class Fibrotic bands  [0.857]

Rule 6: (11/1, lift 2.9)
	2 > 0
	6 <= 0
	39 <= 4
	60 <= 0
	mpr > 2774
	mu1 <= 81
	->  class Fibrotic bands  [0.846]

Rule 7: (11/1, lift 2.9)
	23 > 4
	43 <= 36
	44 <= 0
	mu1 <= 81
	->  class Fibrotic bands  [0.846]

Rule 8: (4, lift 2.8)
	60 > 2
	con > 39
	weight > 6
	->  class Fibrotic bands  [0.833]

Rule 9: (85/43, lift 1.7)
	corr <= 253
	->  class Fibrotic bands  [0.494]

Rule 10: (13, lift 3.5)
	2 <= 0
	64 <= 23
	asm > 378
	con <= 77
	std > 57
	weight <= 28
	->  class Fibrotic hyperplastic tissue  [0.933]

Rule 11: (27/1, lift 3.5)
	2 <= 0
	43 > 36
	43 <= 106
	weight <= 28
	->  class Fibrotic hyperplastic tissue  [0.931]

Rule 12: (3, lift 3.0)
	39 > 4
	43 > 36
	mu1 <= 81
	->  class Fibrotic hyperplastic tissue  [0.800]

Rule 13: (3, lift 3.0)
	6 > 0
	corr <= 253
	->  class Fibrotic hyperplastic tissue  [0.800]

Rule 14: (167/99, lift 1.5)
	48 <= 0
	->  class Fibrotic hyperplastic tissue  [0.408]

Rule 15: (15/10, lift 1.3)
	39 > 3
	60 > 0
	->  class Fibrotic hyperplastic tissue  [0.353]

Rule 16: (7, lift 9.3)
	22 > 13
	43 > 23
	43 <= 36
	std > 72
	cx <= 158
	cy > 110
	->  class Hyperplastic tissue  [0.889]

Rule 17: (5, lift 9.0)
	6 > 0
	corr > 253
	->  class Hyperplastic tissue  [0.857]

Rule 18: (69/53, lift 2.5)
	1 > 153
	->  class Hyperplastic tissue  [0.239]

Rule 19: (7, lift 8.1)
	2 > 0
	18 <= 2
	39 <= 3
	60 <= 2
	weight > 6
	cx > 135
	->  class Involuted  [0.889]

Rule 20: (6, lift 8.0)
	1 <= 131
	2 > 0
	48 <= 0
	con <= 41
	ent > 2382
	mu1 > 81
	weight <= 6
	->  class Involuted  [0.875]

Rule 21: (6, lift 8.0)
	2 > 0
	39 <= 3
	48 > 0
	60 <= 1
	con > 13
	mu1 > 110
	weight > 6
	->  class Involuted  [0.875]

Rule 22: (4, lift 7.6)
	2 <= 0
	43 > 106
	->  class Involuted  [0.833]

Rule 23: (5/1, lift 6.5)
	2 <= 0
	22 <= 13
	cx <= 136
	->  class Involuted  [0.714]

Rule 24: (4, lift 13.1)
	23 <= 4
	39 > 4
	60 <= 0
	->  class Low expressed  [0.833]

Rule 25: (2, lift 11.8)
	con <= 13
	weight > 6
	->  class Low expressed  [0.750]

Rule 26: (5/1, lift 25.3)
	2 <= 0
	con > 77
	std > 57
	std <= 72
	weight <= 28
	->  class Middle hyperplastic tissue  [0.714]

Rule 27: (9, lift 12.9)
	2 > 0
	6 <= 0
	22 <= 54
	39 <= 4
	60 <= 0
	mpr <= 2774
	mu1 <= 81
	std > 52
	corr > 253
	->  class Normal expressed  [0.909]

Rule 28: (3, lift 11.3)
	60 > 0
	mu1 <= 81
	corr <= 254
	->  class Normal expressed  [0.800]

Rule 29: (2, lift 10.6)
	1 > 131
	48 <= 0
	mu1 > 81
	weight <= 6
	->  class Normal expressed  [0.750]

Default class: Fibrotic bands


Evaluation on training data (283 cases):

	           Rules         
	  -----------------------
	    No      Errors   Cost

	    29   60(21.2%)   2.12   <<


	   (a)   (b)   (c)   (d)   (e)   (f)   (g)   (h)    <-classified as
	  ----  ----  ----  ----  ----  ----  ----  ----
	    14     4     2                                  (a): class Explicit
	          79     5                                  (b): class Fibrotic bands
	           6    67           1           1          (c): class Fibrotic hyperplastic tissue
	           9     3    15                            (d): class Hyperplastic tissue
	           7                24                      (e): class Involuted
	          11     1                 6                (f): class Low expressed
	           1     3                       4          (g): class Middle hyperplastic tissue
	           6                                  14    (h): class Normal expressed


	Attribute usage:

	     73%  48
	     37%  2
	     36%  corr
	     34%  weight
	     28%  mu1
	     27%  1
	     25%  43
	     22%  60
	     18%  39
	     13%  con
	     12%  std
	     10%  6
	      9%  64
	      7%  22
	      7%  mpr
	      7%  18
	      7%  cx
	      6%  ent
	      5%  23
	      5%  asm
	      4%  44
	      2%  tr
	      2%  cy


Evaluation on test data (10 cases):

	           Rules         
	  -----------------------
	    No      Errors   Cost

	    29    5(50.0%)   5.00   <<


	   (a)   (b)   (c)   (d)   (e)   (f)   (g)   (h)    <-classified as
	  ----  ----  ----  ----  ----  ----  ----  ----
	                                                    (a): class Explicit
	           5                 3                      (b): class Fibrotic bands
	                                                    (c): class Fibrotic hyperplastic tissue
	           2                                        (d): class Hyperplastic tissue
	                                                    (e): class Involuted
	                                                    (f): class Low expressed
	                                                    (g): class Middle hyperplastic tissue
	                                                    (h): class Normal expressed


Time: 0.1 secs
